{
	"events": [
		{
			"animation": "[Default]",
			"animation_length": 0,
			"change_mirror_portrait": false,
			"change_z_index": false,
			"character": "character-1648394257.json",
			"event_id": "dialogic_002",
			"mirror_portrait": false,
			"portrait": "Default",
			"portrait_definition": "",
			"position": {
				"0": true,
				"1": false,
				"2": false,
				"3": false,
				"4": false
			},
			"type": 0,
			"z_index": 0
		},
		{
			"animation": "[Default]",
			"animation_length": 0,
			"change_mirror_portrait": false,
			"change_z_index": false,
			"character": "character-1648393302.json",
			"event_id": "dialogic_002",
			"mirror_portrait": false,
			"portrait": "Default",
			"portrait_definition": "",
			"position": {
				"0": false,
				"1": false,
				"2": false,
				"3": false,
				"4": true
			},
			"type": 0,
			"z_index": 0
		},
		{
			"character": "character-1648393302.json",
			"event_id": "dialogic_001",
			"portrait": "",
			"text": "Alooooooo mejuah juah man banta krina"
		},
		{
			"character": "character-1648394257.json",
			"event_id": "dialogic_001",
			"portrait": "",
			"text": "Mejuah juah"
		},
		{
			"character": "character-1648393302.json",
			"event_id": "dialogic_010",
			"options": [

			],
			"portrait": "",
			"question": "Gua kabarndu sekali enda pal?"
		},
		{
			"choice": "Luar Biasa",
			"condition": "",
			"definition": "",
			"event_id": "dialogic_011",
			"value": ""
		},
		{
			"character": "character-1648393302.json",
			"event_id": "dialogic_001",
			"portrait": "",
			"text": "Ih baik nya kalau begitu"
		},
		{
			"choice": "Buruk",
			"condition": "",
			"definition": "",
			"event_id": "dialogic_011",
			"value": ""
		},
		{
			"character": "character-1648394257.json",
			"event_id": "dialogic_001",
			"portrait": "",
			"text": "AHAHHAHAHAHAHHA"
		},
		{
			"choice": "Supeeeer",
			"condition": "",
			"definition": "",
			"event_id": "dialogic_011",
			"value": ""
		},
		{
			"character": "character-1648393302.json",
			"event_id": "dialogic_001",
			"portrait": "",
			"text": "Nais"
		},
		{
			"event_id": "dialogic_013"
		}
	],
	"metadata": {
		"dialogic-version": "1.4.1",
		"file": "timeline-1648396048.json",
		"name": "cobaTimeline"
	}
}
